EXPLORATORY DATA ANALYSIS IN R
…
data5 <- df %>% 
  select(!c(country,
            year,
            lifeExp)) %>% 
  subset(continent=="Europe"|continent=="Asia") 
  print(data5)

## # A tibble: 756 x 3
##    continent      pop gdpPercap
##    <fct>        <int>     <dbl>
##  1 Asia       8425333      779.
##  2 Asia       9240934      821.
##  3 Asia      10267083      853.
##  4 Asia      11537966      836.
##  5 Asia      13079460      740.
##  6 Asia      14880372      786.
##  7 Asia      12881816      978.
##  8 Asia      13867957      852.
##  9 Asia      16317921      649.
## 10 Asia      22227415      635.
## # i 746 more rows
…
data6<- df%>% 
  select(!c(country,
            year,
            gdpPercap)) %>% 
  subset(continent=="Europe"|continent=="Asia") 
  print(data6)

## # A tibble: 756 x 3
##    continent lifeExp      pop
##    <fct>       <dbl>    <int>
##  1 Asia         28.8  8425333
##  2 Asia         30.3  9240934
##  3 Asia         32.0 10267083
##  4 Asia         34.0 11537966
##  5 Asia         36.1 13079460
##  6 Asia         38.4 14880372
##  7 Asia         39.9 12881816
##  8 Asia         40.8 13867957
##  9 Asia         41.7 16317921
## 10 Asia         41.8 22227415
## # i 746 more rows
…
